<svg xmlns="http://www.w3.org/2000/svg" width="24" height="24" viewBox="0 0 24 24">
  <g id="arrow-up_linear" data-name="arrow-up/linear" transform="translate(0 24) rotate(-90)" opacity="0.55">
    <g id="vuesax_linear_arrow-up" data-name="vuesax/linear/arrow-up">
      <g id="arrow-up">
        <path id="Vector" d="M15.84,7.1,9.32.577a1.986,1.986,0,0,0-2.8,0L0,7.1" transform="translate(4.08 7.952)" fill="none" stroke="#e95028" stroke-linecap="round" stroke-linejoin="round" stroke-width="1.5"/>
        <path id="Vector-2" data-name="Vector" d="M0,0H24V24H0Z" transform="translate(24 24) rotate(180)" fill="none" opacity="0"/>
      </g>
    </g>
  </g>
</svg>
