<svg id="global-edit_bulk" data-name="global-edit/bulk" xmlns="http://www.w3.org/2000/svg" width="21.52" height="21.52" viewBox="0 0 21.52 21.52">
  <g id="vuesax_bulk_global-edit" data-name="vuesax/bulk/global-edit">
    <g id="global-edit">
      <path id="Vector" d="M0,0H21.52V21.52H0Z" transform="translate(21.52 21.52) rotate(180)" fill="none" opacity="0"/>
      <g id="Group" transform="translate(12.544 12.553)">
        <path id="Vector-2" data-name="Vector" d="M4.25.6.529,4.323a1.356,1.356,0,0,0-.314.619L.009,6.367a.667.667,0,0,0,.8.8l1.426-.206a1.275,1.275,0,0,0,.619-.314L6.573,2.924a1.437,1.437,0,0,0,0-2.331A1.429,1.429,0,0,0,4.25.6Z" transform="translate(0)" fill="#fff"/>
        <path id="Vector-3" data-name="Vector" d="M0,0A3.373,3.373,0,0,0,2.331,2.331" transform="translate(3.721 1.131)" fill="#fff"/>
      </g>
      <path id="Vector-4" data-name="Vector" d="M.018,0C.018.027,0,.063,0,.09A8.513,8.513,0,0,0,3.82,3.91c.027,0,.063-.018.09-.018A25.737,25.737,0,0,1,3.2.717,27.252,27.252,0,0,1,.018,0Z" transform="translate(1.802 13.118)" fill="#fff" opacity="0.4"/>
      <path id="Vector-5" data-name="Vector" d="M4.026,4.026A8.518,8.518,0,0,0,0,0,25.608,25.608,0,0,1,.771,3.255,24.165,24.165,0,0,1,4.026,4.026Z" transform="translate(13.074 1.74)" fill="#fff" opacity="0.4"/>
      <path id="Vector-6" data-name="Vector" d="M0,3.954a26.109,26.109,0,0,1,3.264-.771A27.341,27.341,0,0,1,3.972.018C3.945.018,3.91,0,3.883,0A8.554,8.554,0,0,0,0,3.954Z" transform="translate(1.731 1.811)" fill="#fff" opacity="0.4"/>
      <path id="Vector-7" data-name="Vector" d="M5.954,3.918A24.435,24.435,0,0,0,5.084.457,1.19,1.19,0,0,1,5.057.269,8.814,8.814,0,0,0,2.977,0,8.443,8.443,0,0,0,.888.269,1.476,1.476,0,0,1,.87.457,25.718,25.718,0,0,0,0,3.918,27.535,27.535,0,0,1,5.954,3.918Z" transform="translate(6.438 0.888)" fill="#fff" opacity="0.4"/>
      <path id="Vector-8" data-name="Vector" d="M3.918,0A24.133,24.133,0,0,0,.457.87,1.19,1.19,0,0,1,.269.9,8.814,8.814,0,0,0,0,2.977,8.443,8.443,0,0,0,.269,5.066a1.476,1.476,0,0,1,.188.018,25.383,25.383,0,0,0,3.461.87A27.535,27.535,0,0,1,3.918,0Z" transform="translate(0.888 6.438)" fill="#fff" opacity="0.4"/>
      <path id="Vector-9" data-name="Vector" d="M3.649.9A.733.733,0,0,1,3.461.87,25.718,25.718,0,0,0,0,0,26.361,26.361,0,0,1,0,5.945a24.435,24.435,0,0,0,3.461-.87,1.22,1.22,0,0,1,.188-.018,8.89,8.89,0,0,0,.269-2.089A8.411,8.411,0,0,0,3.649.9Z" transform="translate(14.015 6.438)" fill="#fff" opacity="0.4"/>
      <path id="Vector-10" data-name="Vector" d="M0,0A24.133,24.133,0,0,0,.87,3.461a1.22,1.22,0,0,1,.018.188,8.89,8.89,0,0,0,2.089.269,8.372,8.372,0,0,0,2.08-.269,1.584,1.584,0,0,1,.027-.188A25.383,25.383,0,0,0,5.954,0,27.5,27.5,0,0,1,2.977.188C1.982.179.986.108,0,0Z" transform="translate(6.438 14.024)" fill="#fff" opacity="0.4"/>
      <path id="Vector-11" data-name="Vector" d="M.2.2a25.283,25.283,0,0,0,0,6.375,25.284,25.284,0,0,0,6.375,0A25.283,25.283,0,0,0,6.577.2,25.284,25.284,0,0,0,.2.2Z" transform="translate(6.03 6.03)" fill="#fff" opacity="0.4"/>
    </g>
  </g>
</svg>
