<svg id="call-calling_bulk" data-name="call-calling/bulk" xmlns="http://www.w3.org/2000/svg" width="19.057" height="19.058" viewBox="0 0 19.057 19.058">
  <g id="vuesax_bulk_call-calling" data-name="vuesax/bulk/call-calling">
    <g id="call-calling">
      <path id="Vector" d="M.619,4.089a.612.612,0,0,0,.611-.611,2.764,2.764,0,0,1,.786-1.437,2.216,2.216,0,0,1,1.461-.818A.611.611,0,0,0,3.478,0,3.375,3.375,0,0,0,1.12,1.2,3.747,3.747,0,0,0,0,3.47.62.62,0,0,0,.619,4.089Z" transform="translate(4.447 4.447)" fill="#414042"/>
      <path id="Vector-2" data-name="Vector" d="M.611,6.948a.612.612,0,0,0,.611-.611A5.112,5.112,0,0,1,6.329,1.231.615.615,0,0,0,6.337,0,6.344,6.344,0,0,0,0,6.337.617.617,0,0,0,.611,6.948Z" transform="translate(1.588 1.588)" fill="#414042"/>
      <path id="Vector-3" data-name="Vector" d="M0,9.7l2.6,2.6q.429-.381.834-.786a22.562,22.562,0,0,0,2.215-2.6A14.157,14.157,0,0,0,7.2,6.2a6.688,6.688,0,0,0,.572-2.6,4.108,4.108,0,0,0-.286-1.533A3.655,3.655,0,0,0,6.575.746,2.327,2.327,0,0,0,4.923,0,1.492,1.492,0,0,0,4.28.143a1.294,1.294,0,0,0-.532.445l-1.842,2.6a2.718,2.718,0,0,0-.318.556,1.255,1.255,0,0,0-.111.484,1.078,1.078,0,0,0,.167.564,2.7,2.7,0,0,0,.445.564l.6.627a.425.425,0,0,1,.127.318A.721.721,0,0,1,2.8,6.48c-.024.064-.048.111-.064.159a6.589,6.589,0,0,1-.738,1.016c-.357.413-.738.834-1.151,1.255C.556,9.187.278,9.457,0,9.7Z" transform="translate(9.696 1.588)" fill="#414042" opacity="0.4"/>
      <path id="Vector-4" data-name="Vector" d="M0,3.407a2.017,2.017,0,0,0,.119.675A1.94,1.94,0,0,0,.2,4.272a3.276,3.276,0,0,0,.54.81,3.58,3.58,0,0,0,1.3.937c.008,0,.016.008.024.008a4.011,4.011,0,0,0,1.525.294,6.617,6.617,0,0,0,2.589-.58A13.947,13.947,0,0,0,8.909,4.169c.31-.23.619-.461.913-.707l-2.6-2.6a4.461,4.461,0,0,1-.588.381c-.04.016-.087.04-.143.064a.548.548,0,0,1-.2.032.437.437,0,0,1-.326-.135l-.6-.6A2.436,2.436,0,0,0,4.8.167,1.057,1.057,0,0,0,4.232,0a1.267,1.267,0,0,0-.484.1,3.071,3.071,0,0,0-.556.31L.564,2.279a1.2,1.2,0,0,0-.437.508A1.629,1.629,0,0,0,0,3.407Z" transform="translate(1.612 11.149)" fill="#414042"/>
      <path id="Vector-5" data-name="Vector" d="M19.057,0H0V19.058H19.057Z" fill="none" opacity="0"/>
    </g>
  </g>
</svg>
